^C:\USERS\2160012\DESKTOP\展示用\ゲームプロジェクト\SOURCE\SHADER\SHADOW3_PS.HLSL
/nologo /E"main" /T ps_5_0 /Fo "DATA\Shader\shadow2_ps.cso" /Fc "DATA\Shader\shadow2_ps.cod" C:\USERS\2160012\DESKTOP\展示用\ゲームプロジェクト\SOURCE\SHADER\SHADOW3_PS.HLSL
^C:\USERS\2160012\DESKTOP\展示用\ゲームプロジェクト\SOURCE\SHADER\SHADOW3_VS.HLSL
/nologo /E"main" /T vs_5_0 /Fo "DATA\Shader\shadow2_vs.cso" /Fc "DATA\Shader\shadow2_vs.cod" C:\USERS\2160012\DESKTOP\展示用\ゲームプロジェクト\SOURCE\SHADER\SHADOW3_VS.HLSL
^C:\USERS\2160012\DESKTOP\展示用\ゲームプロジェクト\SOURCE\SHADER\SKINNED_MESH_PS.HLSL
/nologo /E"main" /T ps_5_0 /Fo "DATA\Shader\skin_ps.cso" /Fc "DATA\Shader\skin_ps.cod" C:\USERS\2160012\DESKTOP\展示用\ゲームプロジェクト\SOURCE\SHADER\SKINNED_MESH_PS.HLSL
^C:\USERS\2160012\DESKTOP\展示用\ゲームプロジェクト\SOURCE\SHADER\SKINNED_MESH_VS.HLSL
/nologo /E"main" /T vs_5_0 /Fo "DATA\Shader\skin_vs.cso" /Fc "DATA\Shader\skin_vs.cod" C:\USERS\2160012\DESKTOP\展示用\ゲームプロジェクト\SOURCE\SHADER\SKINNED_MESH_VS.HLSL
^C:\USERS\2160012\DESKTOP\展示用\ゲームプロジェクト\SOURCE\SHADER\SKINNED_SHADOW_PS.HLSL
/nologo /E"main" /T ps_5_0 /Fo "DATA\Shader\shadow_ps.cso" /Fc "DATA\Shader\shadow_ps.cod" C:\USERS\2160012\DESKTOP\展示用\ゲームプロジェクト\SOURCE\SHADER\SKINNED_SHADOW_PS.HLSL
^C:\USERS\2160012\DESKTOP\展示用\ゲームプロジェクト\SOURCE\SHADER\SKINNED_SHADOW_VS.HLSL
/nologo /E"main" /T vs_5_0 /Fo "DATA\Shader\shadow_vs.cso" /Fc "DATA\Shader\shadow_vs.cod" C:\USERS\2160012\DESKTOP\展示用\ゲームプロジェクト\SOURCE\SHADER\SKINNED_SHADOW_VS.HLSL
^C:\USERS\2160012\DESKTOP\展示用\ゲームプロジェクト\SOURCE\SHADER\SPRITE_GEO.HLSL
/nologo /E"main" /T gs_4_0 /Fo "DATA\Shader\Sprite_geo.cso" /Fc "DATA\Shader\Sprite_geo.cod" C:\USERS\2160012\DESKTOP\展示用\ゲームプロジェクト\SOURCE\SHADER\SPRITE_GEO.HLSL
^C:\USERS\2160012\DESKTOP\展示用\ゲームプロジェクト\SOURCE\SHADER\SPRITE_PS.HLSL
/nologo /E"main" /T ps_4_0_level_9_1 /Fo "DATA\Shader\Sprite_ps.cso" /Fc "DATA\Shader\Sprite_ps.cod" C:\USERS\2160012\DESKTOP\展示用\ゲームプロジェクト\SOURCE\SHADER\SPRITE_PS.HLSL
^C:\USERS\2160012\DESKTOP\展示用\ゲームプロジェクト\SOURCE\SHADER\SPRITE_VS.HLSL
/nologo /E"main" /T vs_4_0_level_9_1 /Fo "DATA\Shader\Sprite_vs.cso" /Fc "DATA\Shader\Sprite_vs.cod" C:\USERS\2160012\DESKTOP\展示用\ゲームプロジェクト\SOURCE\SHADER\SPRITE_VS.HLSL
^C:\USERS\2160012\DESKTOP\展示用\ゲームプロジェクト\SOURCE\SHADER\TEST01_PS.HLSL
/nologo /E"main" /T ps_5_0 /Fo "DATA\Shader\test01_ps.cso" /Fc "DATA\Shader\test01_ps.cod" C:\USERS\2160012\DESKTOP\展示用\ゲームプロジェクト\SOURCE\SHADER\TEST01_PS.HLSL
^C:\USERS\2160012\DESKTOP\展示用\ゲームプロジェクト\SOURCE\SHADER\TEST01_VS.HLSL
/nologo /E"main" /T vs_5_0 /Fo "DATA\Shader\test01_vs.cso" /Fc "DATA\Shader\test01_vs.cod" C:\USERS\2160012\DESKTOP\展示用\ゲームプロジェクト\SOURCE\SHADER\TEST01_VS.HLSL
^C:\USERS\2160012\DESKTOP\展示用\ゲームプロジェクト\SOURCE\SHADER\TOON\TOON.VS.HLSL
/nologo /E"main" /T vs_5_0 /Fo "DATA\Shader\Toon_vs.cso" /Fc "DATA\Shader\Toon_vs.cod" C:\USERS\2160012\DESKTOP\展示用\ゲームプロジェクト\SOURCE\SHADER\TOON\TOON.VS.HLSL
^C:\USERS\2160012\DESKTOP\展示用\ゲームプロジェクト\SOURCE\SHADER\TOON\TOON_DS.HLSL
/nologo /E"main" /T ds_5_0 /Fo "DATA\Shader\Toon_ds.cso" /Fc "DATA\Shader\Toon_ds.cod" C:\USERS\2160012\DESKTOP\展示用\ゲームプロジェクト\SOURCE\SHADER\TOON\TOON_DS.HLSL
^C:\USERS\2160012\DESKTOP\展示用\ゲームプロジェクト\SOURCE\SHADER\TOON\TOON_GEO.HLSL
/nologo /E"main" /T gs_5_0 /Fo "DATA\Shader\Toon_gs.cso" /Fc "DATA\Shader\Toon_gs.cod" C:\USERS\2160012\DESKTOP\展示用\ゲームプロジェクト\SOURCE\SHADER\TOON\TOON_GEO.HLSL
^C:\USERS\2160012\DESKTOP\展示用\ゲームプロジェクト\SOURCE\SHADER\TOON\TOON_GEO2.HLSL
/nologo /E"main" /T gs_5_0 /Fo "DATA\Shader\Toon2_gs.cso" /Fc "DATA\Shader\Toon2_gs.cod" C:\USERS\2160012\DESKTOP\展示用\ゲームプロジェクト\SOURCE\SHADER\TOON\TOON_GEO2.HLSL
^C:\USERS\2160012\DESKTOP\展示用\ゲームプロジェクト\SOURCE\SHADER\TOON\TOON_HS.HLSL
/nologo /E"main" /T hs_5_0 /Fo "DATA\Shader\Toon_hs.cso" /Fc "DATA\Shader\Toon_hs.cod" C:\USERS\2160012\DESKTOP\展示用\ゲームプロジェクト\SOURCE\SHADER\TOON\TOON_HS.HLSL
^C:\USERS\2160012\DESKTOP\展示用\ゲームプロジェクト\SOURCE\SHADER\TOON\TOON_PS.HLSL
/nologo /E"main" /T ps_5_0 /Fo "DATA\Shader\Toon_ps.cso" /Fc "DATA\Shader\Toon_ps.cod" C:\USERS\2160012\DESKTOP\展示用\ゲームプロジェクト\SOURCE\SHADER\TOON\TOON_PS.HLSL
^C:\USERS\2160012\DESKTOP\展示用\ゲームプロジェクト\SOURCE\SHADER\TOON\TOON_PS2.HLSL
/nologo /E"main" /T ps_5_0 /Fo "DATA\Shader\Toon2_ps.cso" /Fc "DATA\Shader\Toon2_ps.cod" C:\USERS\2160012\DESKTOP\展示用\ゲームプロジェクト\SOURCE\SHADER\TOON\TOON_PS2.HLSL
^C:\USERS\2160012\DESKTOP\まとめファイル\07_大西亜紋\LINE\SOURCE\SHADER\SHADOW3_PS.HLSL
/nologo /E"main" /T ps_5_0 /Fo "DATA\Shader\shadow2_ps.cso" /Fc "DATA\Shader\shadow2_ps.cod" C:\USERS\2160012\DESKTOP\まとめファイル\07_大西亜紋\LINE\SOURCE\SHADER\SHADOW3_PS.HLSL
^C:\USERS\2160012\DESKTOP\まとめファイル\07_大西亜紋\LINE\SOURCE\SHADER\SHADOW3_VS.HLSL
/nologo /E"main" /T vs_5_0 /Fo "DATA\Shader\shadow2_vs.cso" /Fc "DATA\Shader\shadow2_vs.cod" C:\USERS\2160012\DESKTOP\まとめファイル\07_大西亜紋\LINE\SOURCE\SHADER\SHADOW3_VS.HLSL
^C:\USERS\2160012\DESKTOP\まとめファイル\07_大西亜紋\LINE\SOURCE\SHADER\SKINNED_MESH_PS.HLSL
/nologo /E"main" /T ps_5_0 /Fo "DATA\Shader\skin_ps.cso" /Fc "DATA\Shader\skin_ps.cod" C:\USERS\2160012\DESKTOP\まとめファイル\07_大西亜紋\LINE\SOURCE\SHADER\SKINNED_MESH_PS.HLSL
^C:\USERS\2160012\DESKTOP\まとめファイル\07_大西亜紋\LINE\SOURCE\SHADER\SKINNED_MESH_VS.HLSL
/nologo /E"main" /T vs_5_0 /Fo "DATA\Shader\skin_vs.cso" /Fc "DATA\Shader\skin_vs.cod" C:\USERS\2160012\DESKTOP\まとめファイル\07_大西亜紋\LINE\SOURCE\SHADER\SKINNED_MESH_VS.HLSL
^C:\USERS\2160012\DESKTOP\まとめファイル\07_大西亜紋\LINE\SOURCE\SHADER\SKINNED_SHADOW_PS.HLSL
/nologo /E"main" /T ps_5_0 /Fo "DATA\Shader\shadow_ps.cso" /Fc "DATA\Shader\shadow_ps.cod" C:\USERS\2160012\DESKTOP\まとめファイル\07_大西亜紋\LINE\SOURCE\SHADER\SKINNED_SHADOW_PS.HLSL
^C:\USERS\2160012\DESKTOP\まとめファイル\07_大西亜紋\LINE\SOURCE\SHADER\SKINNED_SHADOW_VS.HLSL
/nologo /E"main" /T vs_5_0 /Fo "DATA\Shader\shadow_vs.cso" /Fc "DATA\Shader\shadow_vs.cod" C:\USERS\2160012\DESKTOP\まとめファイル\07_大西亜紋\LINE\SOURCE\SHADER\SKINNED_SHADOW_VS.HLSL
^C:\USERS\2160012\DESKTOP\まとめファイル\07_大西亜紋\LINE\SOURCE\SHADER\SPRITE_GEO.HLSL
/nologo /E"main" /T gs_4_0 /Fo "DATA\Shader\Sprite_geo.cso" /Fc "DATA\Shader\Sprite_geo.cod" C:\USERS\2160012\DESKTOP\まとめファイル\07_大西亜紋\LINE\SOURCE\SHADER\SPRITE_GEO.HLSL
^C:\USERS\2160012\DESKTOP\まとめファイル\07_大西亜紋\LINE\SOURCE\SHADER\SPRITE_PS.HLSL
/nologo /E"main" /T ps_4_0_level_9_3 /Fo "DATA\Shader\Sprite_ps.cso" /Fc "DATA\Shader\Sprite_ps.cod" C:\USERS\2160012\DESKTOP\まとめファイル\07_大西亜紋\LINE\SOURCE\SHADER\SPRITE_PS.HLSL
^C:\USERS\2160012\DESKTOP\まとめファイル\07_大西亜紋\LINE\SOURCE\SHADER\SPRITE_VS.HLSL
/nologo /E"main" /T vs_4_0_level_9_3 /Fo "DATA\Shader\Sprite_vs.cso" /Fc "DATA\Shader\Sprite_vs.cod" C:\USERS\2160012\DESKTOP\まとめファイル\07_大西亜紋\LINE\SOURCE\SHADER\SPRITE_VS.HLSL
^C:\USERS\2160012\DESKTOP\まとめファイル\07_大西亜紋\LINE\SOURCE\SHADER\TEST01_PS.HLSL
/nologo /E"main" /T ps_5_0 /Fo "DATA\Shader\test01_ps.cso" /Fc "DATA\Shader\test01_ps.cod" C:\USERS\2160012\DESKTOP\まとめファイル\07_大西亜紋\LINE\SOURCE\SHADER\TEST01_PS.HLSL
^C:\USERS\2160012\DESKTOP\まとめファイル\07_大西亜紋\LINE\SOURCE\SHADER\TEST01_VS.HLSL
/nologo /E"main" /T vs_5_0 /Fo "DATA\Shader\test01_vs.cso" /Fc "DATA\Shader\test01_vs.cod" C:\USERS\2160012\DESKTOP\まとめファイル\07_大西亜紋\LINE\SOURCE\SHADER\TEST01_VS.HLSL
^C:\USERS\2160012\DESKTOP\まとめファイル\07_大西亜紋\LINE\SOURCE\SHADER\TOON\TOON.VS.HLSL
/nologo /E"main" /T vs_5_0 /Fo "DATA\Shader\Toon_vs.cso" /Fc "DATA\Shader\Toon_vs.cod" C:\USERS\2160012\DESKTOP\まとめファイル\07_大西亜紋\LINE\SOURCE\SHADER\TOON\TOON.VS.HLSL
^C:\USERS\2160012\DESKTOP\まとめファイル\07_大西亜紋\LINE\SOURCE\SHADER\TOON\TOON_DS.HLSL
/nologo /E"main" /T ds_5_0 /Fo "DATA\Shader\Toon_ds.cso" /Fc "DATA\Shader\Toon_ds.cod" C:\USERS\2160012\DESKTOP\まとめファイル\07_大西亜紋\LINE\SOURCE\SHADER\TOON\TOON_DS.HLSL
^C:\USERS\2160012\DESKTOP\まとめファイル\07_大西亜紋\LINE\SOURCE\SHADER\TOON\TOON_GEO.HLSL
/nologo /E"main" /T gs_5_0 /Fo "DATA\Shader\Toon_gs.cso" /Fc "DATA\Shader\Toon_gs.cod" C:\USERS\2160012\DESKTOP\まとめファイル\07_大西亜紋\LINE\SOURCE\SHADER\TOON\TOON_GEO.HLSL
^C:\USERS\2160012\DESKTOP\まとめファイル\07_大西亜紋\LINE\SOURCE\SHADER\TOON\TOON_GEO2.HLSL
/nologo /E"main" /T gs_5_0 /Fo "DATA\Shader\Toon2_gs.cso" /Fc "DATA\Shader\Toon2_gs.cod" C:\USERS\2160012\DESKTOP\まとめファイル\07_大西亜紋\LINE\SOURCE\SHADER\TOON\TOON_GEO2.HLSL
^C:\USERS\2160012\DESKTOP\まとめファイル\07_大西亜紋\LINE\SOURCE\SHADER\TOON\TOON_HS.HLSL
/nologo /E"main" /T hs_5_0 /Fo "DATA\Shader\Toon_hs.cso" /Fc "DATA\Shader\Toon_hs.cod" C:\USERS\2160012\DESKTOP\まとめファイル\07_大西亜紋\LINE\SOURCE\SHADER\TOON\TOON_HS.HLSL
^C:\USERS\2160012\DESKTOP\まとめファイル\07_大西亜紋\LINE\SOURCE\SHADER\TOON\TOON_PS.HLSL
/nologo /E"main" /T ps_5_0 /Fo "DATA\Shader\Toon_ps.cso" /Fc "DATA\Shader\Toon_ps.cod" C:\USERS\2160012\DESKTOP\まとめファイル\07_大西亜紋\LINE\SOURCE\SHADER\TOON\TOON_PS.HLSL
^C:\USERS\2160012\DESKTOP\まとめファイル\07_大西亜紋\LINE\SOURCE\SHADER\TOON\TOON_PS2.HLSL
/nologo /E"main" /T ps_5_0 /Fo "DATA\Shader\Toon2_ps.cso" /Fc "DATA\Shader\Toon2_ps.cod" C:\USERS\2160012\DESKTOP\まとめファイル\07_大西亜紋\LINE\SOURCE\SHADER\TOON\TOON_PS2.HLSL
^C:\USERS\2160012\DESKTOP\PORTFOLIO\個人製作\SOURCE\SHADER\SHADOW3_PS.HLSL
/nologo /E"main" /T ps_5_0 /Fo "DATA\Shader\shadow2_ps.cso" /Fc "DATA\Shader\shadow2_ps.cod" C:\USERS\2160012\DESKTOP\PORTFOLIO\個人製作\SOURCE\SHADER\SHADOW3_PS.HLSL
^C:\USERS\2160012\DESKTOP\PORTFOLIO\個人製作\SOURCE\SHADER\SHADOW3_VS.HLSL
/nologo /E"main" /T vs_5_0 /Fo "DATA\Shader\shadow2_vs.cso" /Fc "DATA\Shader\shadow2_vs.cod" C:\USERS\2160012\DESKTOP\PORTFOLIO\個人製作\SOURCE\SHADER\SHADOW3_VS.HLSL
^C:\USERS\2160012\DESKTOP\PORTFOLIO\個人製作\SOURCE\SHADER\SKINNED_MESH_PS.HLSL
/nologo /E"main" /T ps_5_0 /Fo "DATA\Shader\skin_ps.cso" /Fc "DATA\Shader\skin_ps.cod" C:\USERS\2160012\DESKTOP\PORTFOLIO\個人製作\SOURCE\SHADER\SKINNED_MESH_PS.HLSL
^C:\USERS\2160012\DESKTOP\PORTFOLIO\個人製作\SOURCE\SHADER\SKINNED_MESH_VS.HLSL
/nologo /E"main" /T vs_5_0 /Fo "DATA\Shader\skin_vs.cso" /Fc "DATA\Shader\skin_vs.cod" C:\USERS\2160012\DESKTOP\PORTFOLIO\個人製作\SOURCE\SHADER\SKINNED_MESH_VS.HLSL
^C:\USERS\2160012\DESKTOP\PORTFOLIO\個人製作\SOURCE\SHADER\SKINNED_SHADOW_PS.HLSL
/nologo /E"main" /T ps_5_0 /Fo "DATA\Shader\shadow_ps.cso" /Fc "DATA\Shader\shadow_ps.cod" C:\USERS\2160012\DESKTOP\PORTFOLIO\個人製作\SOURCE\SHADER\SKINNED_SHADOW_PS.HLSL
^C:\USERS\2160012\DESKTOP\PORTFOLIO\個人製作\SOURCE\SHADER\SKINNED_SHADOW_VS.HLSL
/nologo /E"main" /T vs_5_0 /Fo "DATA\Shader\shadow_vs.cso" /Fc "DATA\Shader\shadow_vs.cod" C:\USERS\2160012\DESKTOP\PORTFOLIO\個人製作\SOURCE\SHADER\SKINNED_SHADOW_VS.HLSL
^C:\USERS\2160012\DESKTOP\PORTFOLIO\個人製作\SOURCE\SHADER\SPRITE_GEO.HLSL
/nologo /E"main" /T gs_4_0 /Fo "DATA\Shader\Sprite_geo.cso" /Fc "DATA\Shader\Sprite_geo.cod" C:\USERS\2160012\DESKTOP\PORTFOLIO\個人製作\SOURCE\SHADER\SPRITE_GEO.HLSL
^C:\USERS\2160012\DESKTOP\PORTFOLIO\個人製作\SOURCE\SHADER\SPRITE_PS.HLSL
/nologo /E"main" /T ps_4_0_level_9_3 /Fo "DATA\Shader\Sprite_ps.cso" /Fc "DATA\Shader\Sprite_ps.cod" C:\USERS\2160012\DESKTOP\PORTFOLIO\個人製作\SOURCE\SHADER\SPRITE_PS.HLSL
^C:\USERS\2160012\DESKTOP\PORTFOLIO\個人製作\SOURCE\SHADER\SPRITE_VS.HLSL
/nologo /E"main" /T vs_4_0_level_9_3 /Fo "DATA\Shader\Sprite_vs.cso" /Fc "DATA\Shader\Sprite_vs.cod" C:\USERS\2160012\DESKTOP\PORTFOLIO\個人製作\SOURCE\SHADER\SPRITE_VS.HLSL
^C:\USERS\2160012\DESKTOP\PORTFOLIO\個人製作\SOURCE\SHADER\TEST01_PS.HLSL
/nologo /E"main" /T ps_5_0 /Fo "DATA\Shader\test01_ps.cso" /Fc "DATA\Shader\test01_ps.cod" C:\USERS\2160012\DESKTOP\PORTFOLIO\個人製作\SOURCE\SHADER\TEST01_PS.HLSL
^C:\USERS\2160012\DESKTOP\PORTFOLIO\個人製作\SOURCE\SHADER\TEST01_VS.HLSL
/nologo /E"main" /T vs_5_0 /Fo "DATA\Shader\test01_vs.cso" /Fc "DATA\Shader\test01_vs.cod" C:\USERS\2160012\DESKTOP\PORTFOLIO\個人製作\SOURCE\SHADER\TEST01_VS.HLSL
^C:\USERS\2160012\DESKTOP\PORTFOLIO\個人製作\SOURCE\SHADER\TOON\TOON.VS.HLSL
/nologo /E"main" /T vs_5_0 /Fo "DATA\Shader\Toon_vs.cso" /Fc "DATA\Shader\Toon_vs.cod" C:\USERS\2160012\DESKTOP\PORTFOLIO\個人製作\SOURCE\SHADER\TOON\TOON.VS.HLSL
^C:\USERS\2160012\DESKTOP\PORTFOLIO\個人製作\SOURCE\SHADER\TOON\TOON_DS.HLSL
/nologo /E"main" /T ds_5_0 /Fo "DATA\Shader\Toon_ds.cso" /Fc "DATA\Shader\Toon_ds.cod" C:\USERS\2160012\DESKTOP\PORTFOLIO\個人製作\SOURCE\SHADER\TOON\TOON_DS.HLSL
^C:\USERS\2160012\DESKTOP\PORTFOLIO\個人製作\SOURCE\SHADER\TOON\TOON_GEO.HLSL
/nologo /E"main" /T gs_5_0 /Fo "DATA\Shader\Toon_gs.cso" /Fc "DATA\Shader\Toon_gs.cod" C:\USERS\2160012\DESKTOP\PORTFOLIO\個人製作\SOURCE\SHADER\TOON\TOON_GEO.HLSL
^C:\USERS\2160012\DESKTOP\PORTFOLIO\個人製作\SOURCE\SHADER\TOON\TOON_GEO2.HLSL
/nologo /E"main" /T gs_5_0 /Fo "DATA\Shader\Toon2_gs.cso" /Fc "DATA\Shader\Toon2_gs.cod" C:\USERS\2160012\DESKTOP\PORTFOLIO\個人製作\SOURCE\SHADER\TOON\TOON_GEO2.HLSL
^C:\USERS\2160012\DESKTOP\PORTFOLIO\個人製作\SOURCE\SHADER\TOON\TOON_HS.HLSL
/nologo /E"main" /T hs_5_0 /Fo "DATA\Shader\Toon_hs.cso" /Fc "DATA\Shader\Toon_hs.cod" C:\USERS\2160012\DESKTOP\PORTFOLIO\個人製作\SOURCE\SHADER\TOON\TOON_HS.HLSL
^C:\USERS\2160012\DESKTOP\PORTFOLIO\個人製作\SOURCE\SHADER\TOON\TOON_PS.HLSL
/nologo /E"main" /T ps_5_0 /Fo "DATA\Shader\Toon_ps.cso" /Fc "DATA\Shader\Toon_ps.cod" C:\USERS\2160012\DESKTOP\PORTFOLIO\個人製作\SOURCE\SHADER\TOON\TOON_PS.HLSL
^C:\USERS\2160012\DESKTOP\PORTFOLIO\個人製作\SOURCE\SHADER\TOON\TOON_PS2.HLSL
/nologo /E"main" /T ps_5_0 /Fo "DATA\Shader\Toon2_ps.cso" /Fc "DATA\Shader\Toon2_ps.cod" C:\USERS\2160012\DESKTOP\PORTFOLIO\個人製作\SOURCE\SHADER\TOON\TOON_PS2.HLSL
