^C:\USERS\2160012\DESKTOP\展示用\ゲームプロジェクト\RELEASE\A_SYSTEM.OBJ|C:\USERS\2160012\DESKTOP\展示用\ゲームプロジェクト\RELEASE\COIN.OBJ|C:\USERS\2160012\DESKTOP\展示用\ゲームプロジェクト\RELEASE\CUBEMESH.OBJ|C:\USERS\2160012\DESKTOP\展示用\ゲームプロジェクト\RELEASE\D2RENDER.OBJ|C:\USERS\2160012\DESKTOP\展示用\ゲームプロジェクト\RELEASE\EFFECT.OBJ|C:\USERS\2160012\DESKTOP\展示用\ゲームプロジェクト\RELEASE\FRAMEWORK.OBJ|C:\USERS\2160012\DESKTOP\展示用\ゲームプロジェクト\RELEASE\GEOMETRIC_PRIMITIVE.OBJ|C:\USERS\2160012\DESKTOP\展示用\ゲームプロジェクト\RELEASE\KEYINPUT.OBJ|C:\USERS\2160012\DESKTOP\展示用\ゲームプロジェクト\RELEASE\LIGHT.OBJ|C:\USERS\2160012\DESKTOP\展示用\ゲームプロジェクト\RELEASE\LOADTEXT.OBJ|C:\USERS\2160012\DESKTOP\展示用\ゲームプロジェクト\RELEASE\MOUSE.OBJ|C:\USERS\2160012\DESKTOP\展示用\ゲームプロジェクト\RELEASE\OBJ_MESH.OBJ|C:\USERS\2160012\DESKTOP\展示用\ゲームプロジェクト\RELEASE\PARTICLE.OBJ|C:\USERS\2160012\DESKTOP\展示用\ゲームプロジェクト\RELEASE\PLAINMESH.OBJ|C:\USERS\2160012\DESKTOP\展示用\ゲームプロジェクト\RELEASE\PLAYER.OBJ|C:\USERS\2160012\DESKTOP\展示用\ゲームプロジェクト\RELEASE\SCENECLEAR.OBJ|C:\USERS\2160012\DESKTOP\展示用\ゲームプロジェクト\RELEASE\SCENEFADE.OBJ|C:\USERS\2160012\DESKTOP\展示用\ゲームプロジェクト\RELEASE\SCENELOADING.OBJ|C:\USERS\2160012\DESKTOP\展示用\ゲームプロジェクト\RELEASE\SCENEMANAGER.OBJ|C:\USERS\2160012\DESKTOP\展示用\ゲームプロジェクト\RELEASE\SCENETITLE.OBJ|C:\USERS\2160012\DESKTOP\展示用\ゲームプロジェクト\RELEASE\SCORE.OBJ|C:\USERS\2160012\DESKTOP\展示用\ゲームプロジェクト\RELEASE\SHADER.OBJ|C:\USERS\2160012\DESKTOP\展示用\ゲームプロジェクト\RELEASE\SHOOTING.RES|C:\USERS\2160012\DESKTOP\展示用\ゲームプロジェクト\RELEASE\SKINNED_MESH.OBJ|C:\USERS\2160012\DESKTOP\展示用\ゲームプロジェクト\RELEASE\SOUND.OBJ|C:\USERS\2160012\DESKTOP\展示用\ゲームプロジェクト\RELEASE\SPHEREMESH.OBJ|C:\USERS\2160012\DESKTOP\展示用\ゲームプロジェクト\RELEASE\SPRITE.OBJ|C:\USERS\2160012\DESKTOP\展示用\ゲームプロジェクト\RELEASE\STAGE.OBJ|C:\USERS\2160012\DESKTOP\展示用\ゲームプロジェクト\RELEASE\STATIC_MESH.OBJ|C:\USERS\2160012\DESKTOP\展示用\ゲームプロジェクト\RELEASE\TEXTURE.OBJ|C:\USERS\2160012\DESKTOP\展示用\ゲームプロジェクト\RELEASE\VIEW.OBJ|C:\USERS\2160012\DESKTOP\展示用\ゲームプロジェクト\RELEASE\WINDOWMAIN.OBJ
C:\USERS\2160012\DESKTOP\展示用\ゲームプロジェクト\RELEASE\RUN.EXE
C:\USERS\2160012\DESKTOP\展示用\ゲームプロジェクト\RELEASE\RUN.PDB
^C:\USERS\2160012\DESKTOP\まとめファイル\07_大西亜紋\LINE\RELEASE\A_SYSTEM.OBJ|C:\USERS\2160012\DESKTOP\まとめファイル\07_大西亜紋\LINE\RELEASE\COIN.OBJ|C:\USERS\2160012\DESKTOP\まとめファイル\07_大西亜紋\LINE\RELEASE\CUBEMESH.OBJ|C:\USERS\2160012\DESKTOP\まとめファイル\07_大西亜紋\LINE\RELEASE\D2RENDER.OBJ|C:\USERS\2160012\DESKTOP\まとめファイル\07_大西亜紋\LINE\RELEASE\EFFECT.OBJ|C:\USERS\2160012\DESKTOP\まとめファイル\07_大西亜紋\LINE\RELEASE\FRAMEWORK.OBJ|C:\USERS\2160012\DESKTOP\まとめファイル\07_大西亜紋\LINE\RELEASE\GEOMETRIC_PRIMITIVE.OBJ|C:\USERS\2160012\DESKTOP\まとめファイル\07_大西亜紋\LINE\RELEASE\KEYINPUT.OBJ|C:\USERS\2160012\DESKTOP\まとめファイル\07_大西亜紋\LINE\RELEASE\LIGHT.OBJ|C:\USERS\2160012\DESKTOP\まとめファイル\07_大西亜紋\LINE\RELEASE\LOADTEXT.OBJ|C:\USERS\2160012\DESKTOP\まとめファイル\07_大西亜紋\LINE\RELEASE\MOUSE.OBJ|C:\USERS\2160012\DESKTOP\まとめファイル\07_大西亜紋\LINE\RELEASE\OBJ_MESH.OBJ|C:\USERS\2160012\DESKTOP\まとめファイル\07_大西亜紋\LINE\RELEASE\PARTICLE.OBJ|C:\USERS\2160012\DESKTOP\まとめファイル\07_大西亜紋\LINE\RELEASE\PLAINMESH.OBJ|C:\USERS\2160012\DESKTOP\まとめファイル\07_大西亜紋\LINE\RELEASE\PLAYER.OBJ|C:\USERS\2160012\DESKTOP\まとめファイル\07_大西亜紋\LINE\RELEASE\SCENECLEAR.OBJ|C:\USERS\2160012\DESKTOP\まとめファイル\07_大西亜紋\LINE\RELEASE\SCENEFADE.OBJ|C:\USERS\2160012\DESKTOP\まとめファイル\07_大西亜紋\LINE\RELEASE\SCENELOADING.OBJ|C:\USERS\2160012\DESKTOP\まとめファイル\07_大西亜紋\LINE\RELEASE\SCENEMANAGER.OBJ|C:\USERS\2160012\DESKTOP\まとめファイル\07_大西亜紋\LINE\RELEASE\SCENETITLE.OBJ|C:\USERS\2160012\DESKTOP\まとめファイル\07_大西亜紋\LINE\RELEASE\SCORE.OBJ|C:\USERS\2160012\DESKTOP\まとめファイル\07_大西亜紋\LINE\RELEASE\SHADER.OBJ|C:\USERS\2160012\DESKTOP\まとめファイル\07_大西亜紋\LINE\RELEASE\SHOOTING.RES|C:\USERS\2160012\DESKTOP\まとめファイル\07_大西亜紋\LINE\RELEASE\SKINNED_MESH.OBJ|C:\USERS\2160012\DESKTOP\まとめファイル\07_大西亜紋\LINE\RELEASE\SOUND.OBJ|C:\USERS\2160012\DESKTOP\まとめファイル\07_大西亜紋\LINE\RELEASE\SPHEREMESH.OBJ|C:\USERS\2160012\DESKTOP\まとめファイル\07_大西亜紋\LINE\RELEASE\SPRITE.OBJ|C:\USERS\2160012\DESKTOP\まとめファイル\07_大西亜紋\LINE\RELEASE\STAGE.OBJ|C:\USERS\2160012\DESKTOP\まとめファイル\07_大西亜紋\LINE\RELEASE\STATIC_MESH.OBJ|C:\USERS\2160012\DESKTOP\まとめファイル\07_大西亜紋\LINE\RELEASE\TEXTURE.OBJ|C:\USERS\2160012\DESKTOP\まとめファイル\07_大西亜紋\LINE\RELEASE\VIEW.OBJ|C:\USERS\2160012\DESKTOP\まとめファイル\07_大西亜紋\LINE\RELEASE\WINDOWMAIN.OBJ
C:\USERS\2160012\DESKTOP\まとめファイル\07_大西亜紋\LINE\RELEASE\RUN.EXE
C:\USERS\2160012\DESKTOP\まとめファイル\07_大西亜紋\LINE\RELEASE\RUN.PDB
^C:\USERS\2160012\DESKTOP\PORTFOLIO\個人製作\RELEASE\A_SYSTEM.OBJ|C:\USERS\2160012\DESKTOP\PORTFOLIO\個人製作\RELEASE\COIN.OBJ|C:\USERS\2160012\DESKTOP\PORTFOLIO\個人製作\RELEASE\CUBEMESH.OBJ|C:\USERS\2160012\DESKTOP\PORTFOLIO\個人製作\RELEASE\D2RENDER.OBJ|C:\USERS\2160012\DESKTOP\PORTFOLIO\個人製作\RELEASE\EFFECT.OBJ|C:\USERS\2160012\DESKTOP\PORTFOLIO\個人製作\RELEASE\FRAMEWORK.OBJ|C:\USERS\2160012\DESKTOP\PORTFOLIO\個人製作\RELEASE\GEOMETRIC_PRIMITIVE.OBJ|C:\USERS\2160012\DESKTOP\PORTFOLIO\個人製作\RELEASE\KEYINPUT.OBJ|C:\USERS\2160012\DESKTOP\PORTFOLIO\個人製作\RELEASE\LIGHT.OBJ|C:\USERS\2160012\DESKTOP\PORTFOLIO\個人製作\RELEASE\LOADTEXT.OBJ|C:\USERS\2160012\DESKTOP\PORTFOLIO\個人製作\RELEASE\MOUSE.OBJ|C:\USERS\2160012\DESKTOP\PORTFOLIO\個人製作\RELEASE\OBJ_MESH.OBJ|C:\USERS\2160012\DESKTOP\PORTFOLIO\個人製作\RELEASE\PARTICLE.OBJ|C:\USERS\2160012\DESKTOP\PORTFOLIO\個人製作\RELEASE\PLAINMESH.OBJ|C:\USERS\2160012\DESKTOP\PORTFOLIO\個人製作\RELEASE\PLAYER.OBJ|C:\USERS\2160012\DESKTOP\PORTFOLIO\個人製作\RELEASE\SCENECLEAR.OBJ|C:\USERS\2160012\DESKTOP\PORTFOLIO\個人製作\RELEASE\SCENEFADE.OBJ|C:\USERS\2160012\DESKTOP\PORTFOLIO\個人製作\RELEASE\SCENELOADING.OBJ|C:\USERS\2160012\DESKTOP\PORTFOLIO\個人製作\RELEASE\SCENEMANAGER.OBJ|C:\USERS\2160012\DESKTOP\PORTFOLIO\個人製作\RELEASE\SCENETITLE.OBJ|C:\USERS\2160012\DESKTOP\PORTFOLIO\個人製作\RELEASE\SCORE.OBJ|C:\USERS\2160012\DESKTOP\PORTFOLIO\個人製作\RELEASE\SHADER.OBJ|C:\USERS\2160012\DESKTOP\PORTFOLIO\個人製作\RELEASE\SHOOTING.RES|C:\USERS\2160012\DESKTOP\PORTFOLIO\個人製作\RELEASE\SKINNED_MESH.OBJ|C:\USERS\2160012\DESKTOP\PORTFOLIO\個人製作\RELEASE\SOUND.OBJ|C:\USERS\2160012\DESKTOP\PORTFOLIO\個人製作\RELEASE\SPHEREMESH.OBJ|C:\USERS\2160012\DESKTOP\PORTFOLIO\個人製作\RELEASE\SPRITE.OBJ|C:\USERS\2160012\DESKTOP\PORTFOLIO\個人製作\RELEASE\STAGE.OBJ|C:\USERS\2160012\DESKTOP\PORTFOLIO\個人製作\RELEASE\STATIC_MESH.OBJ|C:\USERS\2160012\DESKTOP\PORTFOLIO\個人製作\RELEASE\TEXTURE.OBJ|C:\USERS\2160012\DESKTOP\PORTFOLIO\個人製作\RELEASE\VIEW.OBJ|C:\USERS\2160012\DESKTOP\PORTFOLIO\個人製作\RELEASE\WINDOWMAIN.OBJ
C:\USERS\2160012\DESKTOP\PORTFOLIO\個人製作\RELEASE\RUN.EXE
C:\USERS\2160012\DESKTOP\PORTFOLIO\個人製作\RELEASE\RUN.PDB
