^C:\USERS\2160012\DESKTOP\展示用\ゲームプロジェクト\SHOOTING.RC
/l"0x0409" /nologo /fo"RELEASE\SHOOTING.RES"   C:\USERS\2160012\DESKTOP\展示用\ゲームプロジェクト\SHOOTING.RC
^C:\USERS\2160012\DESKTOP\まとめファイル\07_大西亜紋\LINE\SHOOTING.RC
/l"0x0409" /nologo /fo"RELEASE\SHOOTING.RES"   C:\USERS\2160012\DESKTOP\まとめファイル\07_大西亜紋\LINE\SHOOTING.RC
^C:\USERS\2160012\DESKTOP\PORTFOLIO\個人製作\SHOOTING.RC
/l"0x0409" /nologo /fo"RELEASE\SHOOTING.RES"   C:\USERS\2160012\DESKTOP\PORTFOLIO\個人製作\SHOOTING.RC
